<?xml version="1.0" encoding="UTF-8"?>
<svg width="30px" height="29px" viewBox="0 0 30 29" version="1.1" xmlns="http://www.w3.org/2000/svg" xmlns:xlink="http://www.w3.org/1999/xlink">
    <title>Group 8</title>
    <defs>
        <polygon id="path-1" points="0 28.2730167 30 28.2730167 30 0 0 0"></polygon>
    </defs>
    <g id="Page-2" stroke="none" stroke-width="1" fill="none" fill-rule="evenodd">
        <g id="CT-Insights" transform="translate(-534.000000, -361.000000)">
            <g id="Group-8" transform="translate(534.000000, 361.000000)">
                <path d="M3.04882114,1.63679194 C2.86024427,1.80761679 2.84593208,2.09895883 3.01681835,2.2875357 L11.6357027,11.7988739 C11.7266127,11.8992434 11.8516754,11.9502268 11.9772909,11.9502268 C12.0874886,11.9502268 12.1982391,11.9108529 12.2864464,11.8308766 C12.4749619,11.6600518 12.4892741,11.3687712 12.3184492,11.1801329 L3.6995649,1.66879473 C3.52867863,1.48027928 3.23733658,1.46590567 3.04882114,1.63679194" id="Fill-1" fill="#333333"></path>
                <mask id="mask-2" fill="white">
                    <use xlink:href="#path-1"></use>
                </mask>
                <g id="Clip-4"></g>
                <path d="M1.23385784,13.3029617 L2.5849159,13.3029617 L2.5849159,11.570573 L1.23385784,11.570573 L1.23385784,13.3029617 Z M0,16.4559424 C0,17.5087788 0.856581251,18.3654214 1.90941758,18.3654214 C2.55905568,18.3654214 3.15820187,18.039681 3.51213669,17.4941594 C3.6505902,17.2807052 3.58990162,16.9954443 3.37638592,16.8569293 C3.16293164,16.7184144 2.87767074,16.779103 2.73915581,16.9926801 C2.55586155,17.2752383 2.24560038,17.4440361 1.90941758,17.4440361 C1.36463314,17.4440361 0.921385354,17.0007269 0.921385354,16.4559424 C0.921385354,15.9110966 1.36463314,15.4679716 1.90941758,15.4679716 C2.16384279,15.4679716 2.37011026,15.2616427 2.37011026,15.0072789 L2.37011026,14.2244085 L3.04567,14.2244085 C3.30003378,14.2244085 3.50636268,14.0180796 3.50636268,13.7637158 L3.50636268,11.1098803 C3.50636268,10.8555165 3.30003378,10.6491876 3.04567,10.6491876 L2.37011026,10.6491876 L2.37011026,0.921385354 L3.94070373,0.921385354 L14.6099162,10.0646608 C14.8032228,10.2303259 15.094012,10.2077826 15.2595543,10.0145988 C15.4251579,9.82147647 15.4026761,9.53062583 15.2095537,9.36508359 L4.41085597,0.110934797 C4.32737845,0.0393124418 4.22105058,0 4.1110986,0 L1.90941758,0 C1.65499237,0 1.44872491,0.206328894 1.44872491,0.460692677 L1.44872491,10.6491876 L0.773165163,10.6491876 C0.518739954,10.6491876 0.312472486,10.8555165 0.312472486,11.1098803 L0.312472486,13.7637158 C0.312472486,14.0180796 0.518739954,14.2244085 0.773165163,14.2244085 L1.44872491,14.2244085 L1.44872491,14.6027293 C0.617696741,14.8093654 0,15.5618915 0,16.4559424 L0,16.4559424 Z" id="Fill-3" fill="#333333" mask="url(#mask-2)"></path>
                <path d="M21.3800715,23.3199992 L23.5460641,10.9140368 C23.5897992,10.6633586 23.4220457,10.4246583 23.1714289,10.3809232 C22.9209349,10.3371267 22.6821118,10.5049417 22.6383153,10.7555585 L20.4717698,23.1645308 C20.3092374,23.1514471 20.1362012,23.1441374 19.9502042,23.1441374 C18.6404242,23.1441374 17.9511052,23.4973966 17.342868,23.8090705 C16.7528742,24.1114692 16.2432867,24.3726512 15.1558677,24.3726512 C14.0685101,24.3726512 13.5589226,24.1114692 12.9688674,23.8090705 C12.3606917,23.4973966 11.6713726,23.1441374 10.361654,23.1441374 C9.35396554,23.1441374 8.71360272,23.3532919 8.19480134,23.591685 L6.49189693,19.6605637 L10.0645379,17.6197565 C10.0731375,17.6148425 10.0816143,17.6096827 10.0898453,17.6041544 L13.1251344,15.5997727 C13.2427031,15.5221921 13.3183182,15.3949795 13.3302962,15.2544989 L13.5190573,13.0397957 L23.0189703,8.20067978 L28.307108,12.9695247 L23.9147411,24.3091985 C23.3494405,24.2139273 22.9730239,24.021972 22.5576019,23.8090091 C22.2206206,23.6363415 21.8585162,23.4510202 21.3800715,23.3199992 M29.5393073,23.1441374 C28.2295273,23.1441374 27.5401468,23.4973966 26.9319096,23.8090091 C26.3669775,24.0986312 25.8743435,24.349678 24.8790631,24.3705628 L29.2809509,13.0063801 C29.3499319,12.8280613 29.3017742,12.6257865 29.1598194,12.4977754 L23.400731,7.30423325 C23.2590219,7.17646782 23.0531844,7.14925624 22.8830967,7.23580503 L19.1059081,9.15996478 L19.1059081,7.38126107 C19.1059081,7.12677443 18.8996407,6.92056839 18.6452155,6.92056839 L16.3397864,6.92056839 L16.3397864,4.12127684 C16.3397864,3.86691305 16.1335804,3.66058416 15.8790938,3.66058416 L14.2159318,3.66058416 L14.2159318,2.68889116 C14.2159318,2.43440453 14.0096643,2.22819849 13.7552391,2.22819849 C13.5008139,2.22819849 13.2945464,2.43440453 13.2945464,2.68889116 L13.2945464,3.66058416 L12.4377809,3.66058416 L12.4377809,0.811906346 C12.4377809,0.557481137 12.2315134,0.351213669 11.9770882,0.351213669 C11.722663,0.351213669 11.5163955,0.557481137 11.5163955,0.811906346 L11.5163955,3.66058416 L10.5447025,3.66058416 C10.2902159,3.66058416 10.0840099,3.86691305 10.0840099,4.12127684 C10.0840099,4.37570204 10.2902159,4.58196951 10.5447025,4.58196951 L15.4184011,4.58196951 L15.4184011,6.92056839 L14.2491631,6.92056839 C13.9947379,6.92056839 13.7884704,7.12677443 13.7884704,7.38126107 C13.7884704,7.63568628 13.9947379,7.84195375 14.2491631,7.84195375 L18.1845228,7.84195375 L18.1845228,9.38668701 C18.1845228,9.46451335 18.2039333,9.53767135 18.2380245,9.60198405 L12.8727362,12.3349973 C12.7307814,12.4072953 12.6362473,12.5477145 12.6228565,12.706377 L12.4312083,14.953943 L9.59463139,16.8271194 L7.95628538,17.7630013 L7.95628538,13.765663 L10.2250433,13.765663 C10.4795299,13.765663 10.6857359,13.5593956 10.6857359,13.3049704 C10.6857359,13.0504837 10.4795299,12.8442777 10.2250433,12.8442777 L7.49559271,12.8442777 L6.36591284,12.8442777 L6.36591284,12.0730781 L10.2250433,12.0730781 C10.4795299,12.0730781 10.6857359,11.8668107 10.6857359,11.6123855 C10.6857359,11.3579603 10.4795299,11.1516928 10.2250433,11.1516928 L7.95628538,11.1516928 L7.95628538,9.09079946 C7.95628538,8.83637425 7.74995649,8.63010678 7.49559271,8.63010678 C7.24110607,8.63010678 7.03490003,8.83637425 7.03490003,9.09079946 L7.03490003,11.1516928 L5.90522016,11.1516928 C5.65079495,11.1516928 5.44452748,11.3579603 5.44452748,11.6123855 L5.44452748,13.3049704 C5.44452748,13.5593956 5.65079495,13.765663 5.90522016,13.765663 L7.03490003,13.765663 L7.03490003,18.289358 L5.67671659,19.065103 C5.47284473,19.1815662 5.38912151,19.4327972 5.48248856,19.6482785 L7.36795012,24.0007801 C6.91088156,24.2138044 6.41462341,24.3726512 5.56737886,24.3726512 C4.48002129,24.3726512 3.97043377,24.1114692 3.38044001,23.8090705 C2.77220283,23.4973966 2.08294516,23.1441374 0.773165163,23.1441374 C0.518739954,23.1441374 0.312472486,23.3503435 0.312472486,23.6048301 C0.312472486,23.8591939 0.518739954,24.0655228 0.773165163,24.0655228 C1.86058416,24.0655228 2.37011026,24.3266434 2.96016544,24.6290421 C3.5683412,24.940716 4.2576603,25.2940366 5.56737886,25.2940366 C6.87715886,25.2940366 7.56647795,24.940716 8.17465371,24.6290421 C8.76464747,24.3266434 9.27429642,24.0655228 10.361654,24.0655228 C11.4490116,24.0655228 11.9585991,24.3266434 12.5486543,24.6290421 C13.15683,24.940716 13.8461491,25.2940366 15.1558677,25.2940366 C16.4655863,25.2940366 17.1549668,24.940716 17.7631425,24.6290421 C18.3531977,24.3266434 18.8627852,24.0655228 19.9502042,24.0655228 C21.0376847,24.0655228 21.5472722,24.3266434 22.1373274,24.6290421 C22.7455646,24.940716 23.4349451,25.2940366 24.7447251,25.2940366 C26.0545665,25.2940366 26.7438856,24.940716 27.3521842,24.6290421 C27.9422394,24.3266434 28.4518269,24.0655228 29.5393073,24.0655228 C29.793794,24.0655228 30,23.8591939 30,23.6048301 C30,23.3503435 29.793794,23.1441374 29.5393073,23.1441374" id="Fill-5" fill="#333333" mask="url(#mask-2)"></path>
                <path d="M24.7447435,27.3516621 C23.6572631,27.3516621 23.1476755,27.09048 22.5576204,26.7880199 C21.9493218,26.4764074 21.2600027,26.1231483 19.9501612,26.1231483 C18.6404427,26.1231483 17.9510622,26.4764074 17.3428864,26.7880814 C16.7528926,27.09048 16.2433051,27.3516621 15.1558861,27.3516621 C14.0684671,27.3516621 13.5588796,27.09048 12.9688858,26.7880814 C12.3607101,26.4764074 11.671391,26.1231483 10.3616724,26.1231483 C9.05189242,26.1231483 8.36263475,26.4764074 7.75439757,26.7880814 C7.16434239,27.09048 6.65481629,27.3516621 5.56739729,27.3516621 C5.31291066,27.3516621 5.10670461,27.5578681 5.10670461,27.8123548 C5.10670461,28.06678 5.31291066,28.2730474 5.56739729,28.2730474 C6.87711586,28.2730474 7.56649638,27.9197269 8.17461071,27.6080529 C8.7646659,27.3056542 9.27431485,27.0445336 10.3616724,27.0445336 C11.44903,27.0445336 11.9586175,27.3056542 12.5486113,27.6080529 C13.1568485,27.9197269 13.8461061,28.2730474 15.1558861,28.2730474 C16.4656047,28.2730474 17.1549238,27.9197269 17.763161,27.6080529 C18.3531547,27.3056542 18.8627422,27.0445336 19.9501612,27.0445336 C21.0376417,27.0445336 21.5472292,27.3056542 22.1373458,27.6080529 C22.745583,27.9197269 23.4349635,28.2730474 24.7447435,28.2730474 C24.9992301,28.2730474 25.2054362,28.06678 25.2054362,27.8123548 C25.2054362,27.5578681 24.9992301,27.3516621 24.7447435,27.3516621" id="Fill-6" fill="#333333" mask="url(#mask-2)"></path>
                <path d="M16.3721332,14.1270242 C16.1176466,14.1270242 15.9114405,14.3332303 15.9114405,14.5877169 C15.9114405,14.8347096 16.1059757,15.0364316 16.3502657,15.0478568 C16.3697376,15.0680658 16.4043817,15.1275259 16.4043817,15.2213229 C16.4043817,15.3151814 16.3697376,15.3746414 16.3502657,15.3948505 C16.1059757,15.4062757 15.9114405,15.6079362 15.9114405,15.8549903 C15.9114405,16.1094155 16.1176466,16.315683 16.3721332,16.315683 C16.8979985,16.315683 17.3257671,15.8247689 17.3257671,15.2213229 C17.3257671,14.6179383 16.8979985,14.1270242 16.3721332,14.1270242" id="Fill-7" fill="#333333" mask="url(#mask-2)"></path>
            </g>
        </g>
    </g>
</svg>